<?xml version="1.0" encoding="UTF-8" standalone="no"?>
<!-- Created with Inkscape (http://www.inkscape.org/) -->

<svg
   xmlns:dc="http://purl.org/dc/elements/1.1/"
   xmlns:cc="http://creativecommons.org/ns#"
   xmlns:rdf="http://www.w3.org/1999/02/22-rdf-syntax-ns#"
   xmlns:svg="http://www.w3.org/2000/svg"
   xmlns="http://www.w3.org/2000/svg"
   xmlns:sodipodi="http://sodipodi.sourceforge.net/DTD/sodipodi-0.dtd"
   xmlns:inkscape="http://www.inkscape.org/namespaces/inkscape"
   width="210mm"
   height="297mm"
   viewBox="0 0 210 297"
   version="1.1"
   id="svg834"
   inkscape:version="0.92.2 (5c3e80d, 2017-08-06)"
   sodipodi:docname="crypto.svg">
  <defs
     id="defs828" />
  <sodipodi:namedview
     id="base"
     pagecolor="#ffffff"
     bordercolor="#666666"
     borderopacity="1.0"
     inkscape:pageopacity="0.0"
     inkscape:pageshadow="2"
     inkscape:zoom="0.90509668"
     inkscape:cx="317.9056"
     inkscape:cy="542.11927"
     inkscape:document-units="mm"
     inkscape:current-layer="layer1"
     showgrid="false"
     inkscape:window-width="2560"
     inkscape:window-height="1329"
     inkscape:window-x="0"
     inkscape:window-y="55"
     inkscape:window-maximized="1" />
  <metadata
     id="metadata831">
    <rdf:RDF>
      <cc:Work
         rdf:about="">
        <dc:format>image/svg+xml</dc:format>
        <dc:type
           rdf:resource="http://purl.org/dc/dcmitype/StillImage" />
        <dc:title />
      </cc:Work>
    </rdf:RDF>
  </metadata>
  <g
     inkscape:label="Layer 1"
     inkscape:groupmode="layer"
     id="layer1">
    <flowRoot
       xml:space="preserve"
       id="flowRoot8967"
       style="fill:black;fill-opacity:1;stroke:none;font-family:'Press Start 2P';font-style:normal;font-weight:normal;font-size:533.33333333px;line-height:1.25;letter-spacing:0px;word-spacing:0px;-inkscape-font-specification:'Press Start 2P';font-stretch:normal;font-variant:normal"><flowRegion
         id="flowRegion8969"><rect
           id="rect8971"
           width="16068.571"
           height="10628.571"
           x="22285.715"
           y="17922.52" /></flowRegion><flowPara
         id="flowPara8973" /></flowRoot>    <path
       inkscape:connector-curvature="0"
       style="fill:#008000;fill-opacity:1;stroke-width:0.0911148"
       d="m 70.972852,17.015061 c 0,8.28431 -6.71563,15.00009 -14.99991,15.00009 -8.28436,0 -15.00009,-6.71578 -15.00009,-15.00009 0,-8.2842296 6.71573,-14.9999098 15.00009,-14.9999098 8.28419,0 14.99991,6.7156802 14.99991,14.9999098"
       id="path4-3-1" />
    <path
       inkscape:connector-curvature="0"
       style="fill:#ff0000;fill-opacity:1;stroke-width:0.0911148"
       d="m 55.096232,21.566576 0.9743,-3.66865 2.30667,-0.84271 0.57375,-2.15605 -0.0196,-0.0535 -2.27059,0.82951 1.63597,-6.1600696 h -4.63967 l -2.13947,8.0390296 -1.78631,0.65257 -0.59025,2.22273 1.78495,-0.65201 -1.26094,4.73777 h 12.348 l 0.79161,-2.94864 h -7.70843"
       id="path8-7" />
    <path
       id="path2-0"
       d="m 104.11037,20.643834 c -2.00365,8.0357 -10.143419,12.92612 -18.180989,10.92223 -8.0343,-2.00342 -12.92529,-10.14271 -10.9207,-18.17794 2.00272,-8.0366298 10.14249,-12.92751976 18.17772,-10.9240998 8.037099,2.00342 12.927629,10.1436498 10.923969,18.1798098 z"
       inkscape:connector-curvature="0"
       style="fill:#008000;fill-opacity:1;stroke-width:0.46877262" />
    <path
       id="path4-9"
       d="m 96.173591,15.153791 c 0.29863,-1.99592 -1.22122,-3.06887 -3.29941,-3.78464 l 0.67413,-2.7037196 -1.64595,-0.41016 -0.65632,2.6324696 c -0.43271,-0.1078 -0.87713,-0.20952 -1.31874,-0.31031 l 0.66101,-2.6498096 -1.64502,-0.41016 -0.6746,2.7027896 c -0.35817,-0.0816 -0.70977,-0.16218 -1.05105,-0.2470296 l 0.002,-0.008 -2.26993,-0.56672 -0.43785,1.7577996 c 0,0 1.22122,0.27984 1.19544,0.29718 0.66663,0.16641 0.78711,0.6075 0.76695,0.95718 l -0.76789,3.08012 c 0.0459,0.0117 0.10548,0.0286 0.17111,0.0548 -0.0549,-0.0136 -0.11345,-0.0286 -0.17393,-0.0431 l -1.07636,4.31481 c -0.0816,0.2025 -0.28831,0.50624 -0.7543,0.39093 0.0164,0.0239 -1.19638,-0.29859 -1.19638,-0.29859 l -0.81711,1.88389 2.14194,0.53389 c 0.39848,0.0999 0.78899,0.20438 1.17341,0.30282 l -0.68117,2.73466 1.64408,0.41015 0.67461,-2.7056 c 0.44911,0.12187 0.88509,0.23437 1.3117,0.34031 l -0.67226,2.69295 1.64596,0.41014 0.68116,-2.7295 c 2.80671,0.53109 4.91725,0.31687 5.80562,-2.22138 0.71586,-2.04373 -0.0356,-3.22263 -1.51235,-3.99137 1.07543,-0.24797 1.88552,-0.9553 2.10163,-2.41638 z m -3.76071,5.27291 c -0.50865,2.04373 -3.95011,0.93891 -5.06585,0.66187 l 0.90384,-3.62293 c 1.11575,0.27843 4.69363,0.82968 4.16201,2.96106 z m 0.50912,-5.30244 c -0.46411,1.85904 -3.32848,0.91452 -4.25764,0.68295 l 0.81946,-3.28588 c 0.92916,0.23155 3.92151,0.66373 3.43818,2.60293 z"
       inkscape:connector-curvature="0"
       style="fill:#ff0000;fill-opacity:1;stroke-width:0.46877262" />
    <path
       style="fill:#008000;fill-opacity:1;stroke-width:0.46877268"
       inkscape:connector-curvature="0"
       d="m 137.69687,20.643834 c -2.00366,8.0357 -10.14343,12.92612 -18.181,10.92223 -8.03429,-2.00342 -12.92528,-10.14271 -10.92069,-18.17794 2.00271,-8.0366298 10.14248,-12.92751976 18.17771,-10.9240998 8.0371,2.00342 12.92763,10.1436498 10.92398,18.1798098 z"
       id="path10478" />
    <path
       inkscape:connector-curvature="0"
       style="fill:#ff0000;fill-opacity:1;stroke-width:1.25064695"
       d="m 123.10095,21.992471 -6.14102,-3.62671 6.13959,8.6539 6.14621,-8.6539 -6.14621,3.62671 z m 0.0898,-14.9818296 -6.14101,10.1895496 6.14101,3.63048 6.14102,-3.62906 -6.13959,-10.1909696 z"
       id="path2-6-3" />
    <circle
       style="opacity:1;fill:#008000;fill-opacity:1;stroke:none;stroke-width:0.00325388;stroke-miterlimit:4;stroke-dasharray:none;stroke-opacity:1"
       id="path1402-3"
       cx="22.386351"
       cy="17.015152"
       r="15" />
    <text
       xml:space="preserve"
       style="font-style:normal;font-variant:normal;font-weight:normal;font-stretch:normal;font-size:22.17617989px;line-height:1.25;font-family:'Press Start 2P';-inkscape-font-specification:'Press Start 2P';letter-spacing:0px;word-spacing:0px;fill:#ff0000;fill-opacity:1;stroke:none;stroke-width:0.04158034"
       x="13.480101"
       y="25.098415"
       id="text8942"><tspan
         sodipodi:role="line"
         id="tspan8940"
         x="13.480101"
         y="25.098415"
         style="font-style:normal;font-variant:normal;font-weight:bold;font-stretch:normal;font-family:sans-serif;-inkscape-font-specification:'sans-serif Bold';fill:#ff0000;fill-opacity:1;stroke-width:0.04158034">Ð</tspan></text>
    <path
       style="fill:#000000;stroke-width:0.46877259"
       d="m 123.11534,38.108653 c -6.71532,0.009 -12.82254,4.56065 -14.52015,11.372961 -2.0046,8.03523 2.8864,16.17452 10.92069,18.17794 8.03757,2.00389 16.17734,-2.88653 18.181,-10.92223 2.00365,-8.03617 -2.88688,-16.176401 -10.92398,-18.179821 -1.22412,-0.30521 -2.45066,-0.45041 -3.65756,-0.44885 z m 0.0754,4.99547 h 10e-4 l 6.13958,10.190981 -6.14102,3.62906 -6.141,-3.63048 z m -6.23082,11.355131 6.14031,3.62629 6.14549,-3.62629 -6.1462,8.6539 z"
       id="path10480"
       inkscape:connector-curvature="0" />
    <path
       style="opacity:1;fill:#000000;fill-opacity:1;stroke:none;stroke-width:0.00325388;stroke-miterlimit:4;stroke-dasharray:none;stroke-opacity:1"
       d="M 22.386351,38.108639 A 14.999999,15.000005 0 0 0 7.3863514,53.108634 14.999999,15.000005 0 0 0 22.386351,68.108644 14.999999,15.000005 0 0 0 37.38635,53.108634 14.999999,15.000005 0 0 0 22.386351,38.108639 Z m -6.66476,6.91674 h 4.38542 c 2.46162,0 4.29158,0.17686 5.48991,0.53058 1.19832,0.3465 2.2306,0.93844 3.09686,1.77583 0.75076,0.729105 1.31021,1.570095 1.67837,2.522975 0.375379,0.95288 0.563069,2.03209 0.563069,3.23764 0,1.21998 -0.18769,2.31002 -0.563069,3.27013 -0.36816,0.95288 -0.92761,1.79387 -1.67837,2.52297 -0.87348,0.83738 -1.91659,1.43293 -3.12935,1.78665 -1.21276,0.3465 -3.0319,0.51976 -5.45742,0.51976 h -4.38542 v -6.72432 h -1.88412 v -2.81535 h 1.88412 z m 4.16886,3.151015 v 3.47585 h 2.54463 v 2.81535 h -2.54463 v 3.57331 h 1.48346 c 1.70364,0 3.00303,-0.4223 3.89816,-1.2669 0.90235,-0.8446 1.35353,-2.0718 1.35353,-3.6816 0,-1.60258 -0.44757,-2.82256 -1.3427,-3.65994 -0.89513,-0.83738 -2.19813,-1.25607 -3.90899,-1.25607 z"
       id="circle10482"
       inkscape:connector-curvature="0" />
    <path
       style="fill:#000000;stroke-width:0.09111479"
       d="m 55.972952,38.108639 c -8.28437,0 -15.0001,6.71568 -15.0001,14.999915 0,8.2843 6.71573,15.00009 15.0001,15.00009 8.28427,0 14.9999,-6.71579 14.9999,-15.00009 0,-8.284235 -6.71572,-14.999915 -14.9999,-14.999915 z m -2.31588,6.95559 h 4.63967 l -1.63597,6.160085 2.27058,-0.82951 0.0196,0.0535 -0.57375,2.15605 -2.30667,0.84269 -0.9743,3.66865 h 7.70843 l -0.79161,2.94865 h -12.348 l 1.26094,-4.73778 -1.78495,0.65201 0.59025,-2.22272 1.78631,-0.65256 z"
       id="path10484"
       inkscape:connector-curvature="0" />
    <path
       style="fill:#000000;stroke-width:0.46877262"
       d="m 89.528826,38.108653 c -6.71532,0.009 -12.822525,4.56067 -14.520145,11.372981 -2.00459,8.03521 2.8864,16.1745 10.920685,18.17792 8.03758,2.00389 16.177354,-2.88653 18.180994,-10.92222 2.00366,-8.03617 -2.88686,-16.176391 -10.923964,-18.179811 -1.22412,-0.30521 -2.45066,-0.45042 -3.65757,-0.44887 z m -0.58554,5.22678 1.64502,0.41015 -0.66101,2.649822 c 0.44161,0.10078 0.88604,0.20251 1.31874,0.31031 l 0.65631,-2.632472 1.64596,0.41015 -0.67413,2.703722 c 2.07818,0.715769 3.59804,1.788739 3.29941,3.784659 -0.21612,1.46108 -1.0262,2.16841 -2.10163,2.41638 1.47672,0.76874 2.22821,1.94764 1.51235,3.99135 -0.88837,2.53826 -2.99892,2.75247 -5.80562,2.22138 l -0.68117,2.72951 -1.64595,-0.41014 0.67226,-2.69296 c -0.42661,-0.10594 -0.86259,-0.21844 -1.3117,-0.34031 l -0.67461,2.70561 -1.64408,-0.41016 0.68117,-2.73465 c -0.38442,-0.0985 -0.77493,-0.20298 -1.17341,-0.30283 l -2.14194,-0.53389 0.81711,-1.88388 c 0,0 1.21279,0.3225 1.19638,0.29859 0.46599,0.11531 0.67273,-0.18842 0.7543,-0.39092 l 1.07636,-4.31482 c 0.0605,0.0145 0.11908,0.0295 0.17393,0.0431 -0.0656,-0.0263 -0.12517,-0.0431 -0.17112,-0.0548 l 0.7679,-3.08013 c 0.0202,-0.34968 -0.10032,-0.790759 -0.76695,-0.957169 0.0258,-0.0173 -1.19544,-0.29718 -1.19544,-0.29718 l 0.43785,-1.757812 2.26993,0.566732 -0.002,0.008 c 0.34128,0.0849 0.69289,0.16547 1.05105,0.24703 z m 0.54052,5.003871 -0.81945,3.28588 c 0.92916,0.23157 3.79352,1.17609 4.25763,-0.68295 0.48333,-1.9392 -2.50901,-2.37138 -3.43818,-2.60293 z m -1.23294,4.94431 -0.90385,3.62293 c 1.11575,0.27704 4.55721,1.38185 5.06585,-0.66187 0.53162,-2.13138 -3.04626,-2.68262 -4.162,-2.96106 z"
       id="path10490"
       inkscape:connector-curvature="0" />
    <g
       id="g943"
       transform="translate(-0.29259947,-2.1778467)">
      <circle
         r="20"
         style="opacity:1;fill:#008000;fill-opacity:1;stroke:none;stroke-width:0.0043385;stroke-miterlimit:4;stroke-dasharray:none;stroke-opacity:1"
         id="circle10370"
         cx="28.063847"
         cy="186.82141" />
      <g
         aria-label="Ð"
         style="font-style:normal;font-variant:normal;font-weight:normal;font-stretch:normal;font-size:1911.50695801px;line-height:1.25;font-family:'Press Start 2P';-inkscape-font-specification:'Press Start 2P';letter-spacing:0px;word-spacing:0px;fill:#ff0000;fill-opacity:1;stroke:none;stroke-width:3.58407593"
         id="g10374"
         transform="matrix(0.01437177,0,0,0.01437177,-82.736252,113.45562)">
        <path
           d="m 7537.9097,4679.7147 v 299.6063 h 219.338 v 242.6718 h -219.338 v 308.0065 h 127.8694 q 220.2713,0 336.0071,-109.2023 116.6691,-109.2023 116.6691,-317.3401 0,-207.2043 -115.7358,-315.4733 -115.7357,-108.2689 -336.9404,-108.2689 z m -359.3409,-271.6058 h 378.008 q 318.2734,0 473.21,45.7343 154.9366,44.801 266.9389,153.0699 97.0687,94.2687 144.6697,217.4713 48.5344,123.2026 48.5344,279.0725 0,157.7367 -48.5344,281.8726 -47.601,123.2026 -144.6697,217.4713 -112.9357,108.2689 -269.739,154.0032 -156.8033,44.801 -470.4099,44.801 h -378.008 V 5221.9928 H 7016.1654 V 4979.321 h 162.4034 z"
           style="font-style:normal;font-variant:normal;font-weight:bold;font-stretch:normal;font-family:sans-serif;-inkscape-font-specification:'sans-serif Bold';fill:#ff0000;stroke-width:3.58407593"
           id="path10372"
           inkscape:connector-curvature="0" />
      </g>
      <path
         inkscape:connector-curvature="0"
         id="path10376"
         d="m 28.063738,170.15695 c -4.4196,0 -8.65826,1.75572 -11.78346,4.88092 -3.1252,3.12519 -4.88094,7.36388 -4.88094,11.78356 0,4.4197 1.75574,8.65838 4.88094,11.78357 3.1252,3.1252 7.36386,4.88089 11.78346,4.88089 4.41974,0 8.6584,-1.75569 11.7836,-4.88089 3.1252,-3.12519 4.88094,-7.36385 4.88094,-11.78357 0,-4.41968 -1.75574,-8.65837 -4.88094,-11.78357 -3.1252,-3.12519 -7.36386,-4.88091 -11.7836,-4.88091 z m 0,0.64144 c 4.2496,0 8.3252,1.68815 11.33,4.69304 3.00494,3.00491 4.69307,7.08044 4.69307,11.33 0,4.2496 -1.68813,8.3251 -4.69307,11.33 -3.0048,3.0049 -7.0804,4.69304 -11.33,4.69304 -4.24946,0 -8.32506,-1.68814 -11.32986,-4.69304 -3.00494,-3.0049 -4.69307,-7.08042 -4.69307,-11.33 0,-4.24956 1.68813,-8.32509 4.69307,-11.32999 3.0048,-3.0049 7.0804,-4.69305 11.32986,-4.69305 z m -0.6716,9.23117 c 0.24027,1.25119 1.20134,6.25588 2.1624,11.2606 -1.92213,-10.00941 -2.40266,-12.51177 -2.1624,-11.2606 z m 0.0259,0.26144 c -0.23106,-1.20302 0.23107,1.20302 2.0792,10.82715 -0.92413,-4.81207 -1.84813,-9.62413 -2.0792,-10.82715 z"
         style="fill:#0000ff;stroke-width:0.03065169" />
    </g>
    <g
       id="g919"
       transform="translate(-1.6716309e-5,-2.1778467)">
      <circle
         r="20"
         style="opacity:1;fill:#008000;fill-opacity:1;stroke:none;stroke-width:0.0043385;stroke-miterlimit:4;stroke-dasharray:none;stroke-opacity:1"
         id="circle12593"
         cx="127.7532"
         cy="186.82141" />
      <path
         inkscape:connector-curvature="0"
         style="fill:#0000ff;stroke-width:0.03065169"
         d="m 127.753,170.15698 c -4.4196,0 -8.6582,1.75572 -11.7834,4.88092 -3.1252,3.12518 -4.881,7.36387 -4.881,11.78357 0,4.41968 1.7558,8.65836 4.881,11.78354 3.1252,3.1252 7.3638,4.88091 11.7834,4.88091 4.4198,0 8.6584,-1.75571 11.7836,-4.88091 3.1252,-3.12518 4.881,-7.36385 4.881,-11.78354 0,-4.4197 -1.7558,-8.65839 -4.881,-11.78359 -3.1252,-3.12518 -7.3638,-4.8809 -11.7836,-4.8809 z m 0,0.64144 c 4.2496,0 8.3251,1.68814 11.33,4.69304 3.005,3.0049 4.6931,7.08043 4.6931,11.33001 0,4.24957 -1.6881,8.32508 -4.6931,11.32997 -3.0049,3.00491 -7.0804,4.69304 -11.33,4.69304 -4.2494,0 -8.325,-1.68813 -11.3298,-4.69304 -3.005,-3.00489 -4.6931,-7.08041 -4.6931,-11.32997 0,-4.24958 1.6881,-8.32511 4.6929,-11.33 3.005,-3.00491 7.0806,-4.69305 11.33,-4.69305 z m -0.6716,9.23117 c 0.2403,1.25117 1.2014,6.25589 2.1624,11.26058 -1.9221,-10.00941 -2.4026,-12.51175 -2.1624,-11.26058 z m 0.026,0.26143 c -0.2311,-1.20302 0.2311,1.20301 2.0792,10.82714 -0.9241,-4.81205 -1.8481,-9.62413 -2.0792,-10.82714 z"
         id="path12595" />
      <path
         inkscape:connector-curvature="0"
         style="fill:#ff0000;stroke-width:1.46005428"
         d="m 127.7006,192.63252 -7.1688,-4.23421 7.1672,10.10349 7.175,-10.10349 -7.175,4.23421 z m 0.105,-17.49141 -7.169,11.89638 7.169,4.23863 7.1688,-4.23697 -7.1672,-11.89804 z"
         id="path12591" />
    </g>
    <g
       id="g933"
       transform="translate(1.1803491e-4,-2.1778467)">
      <circle
         r="20"
         cy="186.82141"
         cx="77.908516"
         id="circle12645"
         style="opacity:1;fill:#008000;fill-opacity:1;stroke:none;stroke-width:0.0043385;stroke-miterlimit:4;stroke-dasharray:none;stroke-opacity:1" />
      <path
         id="path12647"
         d="m 77.908575,170.1569 c -4.41974,0 -8.65841,1.75572 -11.783614,4.88092 -3.1252,3.12518 -4.88093,7.36385 -4.88093,11.78357 0,4.41967 1.75573,8.65835 4.88093,11.78353 3.125204,3.1252 7.363874,4.88091 11.783614,4.88091 4.4196,0 8.6584,-1.75571 11.78346,-4.88091 3.1252,-3.12518 4.88094,-7.36385 4.88094,-11.78353 0,-4.41972 -1.7556,-8.65839 -4.88094,-11.78359 -3.12506,-3.12518 -7.36386,-4.8809 -11.78346,-4.8809 z m 0,0.64143 c 4.2496,0 8.32506,1.68814 11.33,4.69304 3.00493,3.0049 4.69306,7.08043 4.69306,11.33001 0,4.24957 -1.68826,8.32508 -4.69306,11.32997 -3.00494,3.00491 -7.0804,4.69304 -11.33,4.69304 -4.2496,0 -8.32507,-1.68813 -11.33001,-4.69304 -3.004934,-3.00489 -4.693064,-7.08041 -4.693064,-11.32997 0,-4.24958 1.68813,-8.32511 4.693064,-11.33 3.00494,-3.00491 7.08041,-4.69305 11.33001,-4.69305 z m -0.67174,9.23117 c 0.24027,1.25117 1.20147,6.25589 2.16254,11.26058 -1.92227,-10.00941 -2.4028,-12.51175 -2.16254,-11.26058 z m 0.0259,0.26143 c -0.23093,-1.20302 0.23107,1.20301 2.0792,10.82714 -0.924,-4.81205 -1.84813,-9.62413 -2.0792,-10.82714 z"
         style="fill:#0000ff;stroke-width:0.03065169"
         inkscape:connector-curvature="0" />
      <path
         id="path12653"
         d="m 86.727505,183.97219 c 0.39813,-2.66124 -1.62827,-4.09185 -4.3992,-5.04621 l 0.8988,-3.60496 -2.19453,-0.54688 -0.87507,3.50997 c -0.57693,-0.14376 -1.1696,-0.27936 -1.7584,-0.41373 l 0.88133,-3.5331 -2.19333,-0.54687 -0.89947,3.6037 c -0.47746,-0.10874 -0.94626,-0.21623 -1.40133,-0.32936 l 0.003,-0.0112 -3.02654,-0.75563 -0.58373,2.34375 c 0,0 1.62827,0.37311 1.59387,0.39623 0.8888,0.22188 1.04946,0.81 1.02266,1.27625 l -1.02386,4.10685 c 0.0612,0.0156 0.14053,0.0381 0.22813,0.0731 -0.0732,-0.0181 -0.15133,-0.0381 -0.232,-0.0575 l -1.43507,5.75307 c -0.1088,0.27 -0.3844,0.675 -1.00573,0.52125 0.0219,0.0319 -1.5952,-0.39812 -1.5952,-0.39812 l -1.08947,2.51184 2.85587,0.71188 c 0.53133,0.13312 1.052,0.27249 1.56453,0.40373 l -0.90813,3.64622 2.19213,0.54688 0.89947,-3.60748 c 0.5988,0.16249 1.18,0.3125 1.74893,0.45376 l -0.8964,3.59057 2.19467,0.54688 0.90813,-3.63933 c 3.74227,0.70812 6.5564,0.42249 7.7408,-2.96186 0.95454,-2.72496 -0.0475,-4.29682 -2.0164,-5.32181 1.43387,-0.33063 2.514,-1.27373 2.80214,-3.22184 z m -5.01427,7.03055 c -0.67813,2.72497 -5.2668,1.25186 -6.7544,0.88249 l 1.20507,-4.83057 c 1.4876,0.37124 6.25813,1.10625 5.54933,3.94808 z m 0.6788,-7.06992 c -0.6188,2.47872 -4.438,1.21936 -5.6768,0.91061 l 1.09254,-4.38122 c 1.23893,0.30874 5.2288,0.885 4.58426,3.47061 z"
         inkscape:connector-curvature="0"
         style="fill:#ff0000;stroke-width:0.62503022" />
    </g>
    <g
       id="g914"
       transform="translate(0.13922125,-2.1778467)">
      <circle
         r="20"
         cy="186.82141"
         cx="177.31943"
         id="path1402-35-3"
         style="opacity:1;fill:#008000;fill-opacity:1;stroke:none;stroke-width:0.0043385;stroke-miterlimit:4;stroke-dasharray:none;stroke-opacity:1" />
      <path
         id="path4731"
         d="m 177.31932,170.15698 c -4.4196,0 -8.6582,1.75572 -11.7834,4.88092 -3.1252,3.12518 -4.881,7.36387 -4.881,11.78357 0,4.41968 1.7558,8.65836 4.881,11.78354 3.1252,3.1252 7.3638,4.88091 11.7834,4.88091 4.4198,0 8.6584,-1.75571 11.7836,-4.88091 3.1252,-3.12518 4.881,-7.36385 4.881,-11.78354 0,-4.4197 -1.7558,-8.65839 -4.881,-11.78359 -3.1252,-3.12518 -7.3638,-4.8809 -11.7836,-4.8809 z m 0,0.64144 c 4.2496,0 8.3251,1.68814 11.33,4.69304 3.005,3.0049 4.6931,7.08043 4.6931,11.33001 0,4.24957 -1.6881,8.32508 -4.6931,11.32997 -3.0049,3.00491 -7.0804,4.69304 -11.33,4.69304 -4.2494,0 -8.325,-1.68813 -11.3298,-4.69304 -3.005,-3.00489 -4.6931,-7.08041 -4.6931,-11.32997 0,-4.24958 1.6881,-8.32511 4.6929,-11.33 3.005,-3.00491 7.0806,-4.69305 11.33,-4.69305 z m -0.6716,9.23117 c 0.2403,1.25117 1.2014,6.25589 2.1624,11.26058 -1.9221,-10.00941 -2.4026,-12.51175 -2.1624,-11.26058 z m 0.026,0.26143 c -0.2311,-1.20302 0.2311,1.20301 2.0792,10.82714 -0.9241,-4.81205 -1.8481,-9.62413 -2.0792,-10.82714 z"
         style="fill:#0000ff;stroke-width:0.03065169"
         inkscape:connector-curvature="0" />
      <path
         inkscape:connector-curvature="0"
         style="fill:#ff0000;stroke-width:0.12148643"
         d="m 176.15062,192.16412 1.2991,-4.89152 3.0756,-1.12363 0.7649,-2.87472 -0.026,-0.0713 -3.0275,1.106 2.1813,-8.21342 h -6.1862 l -2.8527,10.71872 -2.3817,0.87008 -0.787,2.96365 2.3799,-0.86936 -1.6812,6.31704 h 16.464 l 1.0555,-3.93153 h -10.2779"
         id="path4743" />
    </g>
    <path
       style="opacity:1;fill:#000000;fill-opacity:1;stroke:none;stroke-width:0.0043385;stroke-miterlimit:4;stroke-dasharray:none;stroke-opacity:1"
       d="m 27.771247,250.02558 a 19.999999,20 0 0 0 20,-20 19.999999,20 0 0 0 -20,-20 19.999999,20 0 0 0 -20.0000001,20 19.999999,20 0 0 0 20.0000001,20 z m 0,-3.3355 c -4.41973,0 -8.6584,-1.7558 -11.7836,-4.8809 -3.125201,-3.1252 -4.880931,-7.3639 -4.880931,-11.7836 0,-4.4197 1.75573,-8.6584 4.880931,-11.7836 3.1252,-3.1252 7.36387,-4.8809 11.7836,-4.8809 4.41973,0 8.6584,1.7557 11.7836,4.8809 3.1252,3.1252 4.8808,7.3639 4.8808,11.7836 0,4.4197 -1.7556,8.6584 -4.8808,11.7835 -3.1252,3.1252 -7.36387,4.881 -11.7836,4.881 z m 0,-0.6415 c 4.2496,0 8.32507,-1.6881 11.33,-4.693 3.00493,-3.0049 4.69307,-7.0804 4.69307,-11.33 0,-4.2496 -1.68814,-8.3251 -4.69307,-11.33 -3.00493,-3.0049 -7.0804,-4.693 -11.33,-4.693 -4.2496,0 -8.32507,1.6881 -11.33,4.693 -3.00493,3.0049 -4.693071,7.0804 -4.693071,11.33 0,4.2496 1.688141,8.3251 4.693071,11.33 3.00493,3.0049 7.0804,4.693 11.33,4.693 z m 7.63133,-6.0095 h -5.43266 c -3.04947,0 -5.3164,-0.2191 -6.8008,-0.6573 -1.48454,-0.4292 -2.76334,-1.1625 -3.8364,-2.1999 -0.93,-0.9032 -1.62307,-1.945 -2.0792,-3.1254 -0.46507,-1.1804 -0.69747,-2.5174 -0.69747,-4.0108 0,-1.5113 0.2324,-2.8616 0.69747,-4.051 0.45613,-1.1804 1.1492,-2.2222 2.0792,-3.1254 1.082,-1.0374 2.37426,-1.7752 3.87666,-2.2133 1.50227,-0.4293 3.75587,-0.6439 6.76054,-0.6439 h 5.43266 v 8.33 h 2.334 v 3.4877 h -2.334 z m -5.1644,-3.9035 v -4.3058 h -2.7288 -0.0243 -0.3992 v -2.0784 -0.1269 -1.2824 h 3.15226 v -4.4266 h -1.83773 c -2.1104,0 -3.72013,0.5232 -4.82893,1.5695 -1.11787,1.0463 -1.6768,2.5665 -1.6768,4.5607 0,1.9853 0.55453,3.4966 1.66333,4.5339 1.09347,1.0229 2.678,1.5414 4.75387,1.5557 0.008,0 0.0163,0 0.0244,0 0.0213,0 0.0427,0 0.0641,0 z"
       id="circle10405"
       inkscape:connector-curvature="0" />
    <path
       style="opacity:1;fill:#000000;fill-opacity:1;stroke:none;stroke-width:0.0043385;stroke-miterlimit:4;stroke-dasharray:none;stroke-opacity:1"
       d="m 127.75318,210.02558 a 19.999993,20.000001 0 0 0 -20,20 19.999993,20.000001 0 0 0 20,20 19.999993,20.000001 0 0 0 20,-20 19.999993,20.000001 0 0 0 -20,-20 z m 0,3.3355 c 4.4197,0 8.6584,1.7557 11.7836,4.8809 3.1252,3.1252 4.8809,7.3639 4.8809,11.7836 0,4.4197 -1.7557,8.6584 -4.8809,11.7836 -3.1252,3.1252 -7.3639,4.8809 -11.7836,4.8809 -4.4197,0 -8.6584,-1.7557 -11.7836,-4.8809 -3.1252,-3.1252 -4.8808,-7.3639 -4.8808,-11.7836 0,-4.4197 1.7556,-8.6584 4.8808,-11.7835 3.1252,-3.1253 7.3639,-4.881 11.7836,-4.881 z m 0,0.6415 c -4.2496,0 -8.3251,1.6881 -11.33,4.693 -3.0049,3.0049 -4.6931,7.0804 -4.6931,11.33 0,4.2496 1.6882,8.3251 4.6931,11.33 3.0049,3.0049 7.0804,4.693 11.33,4.693 4.2496,0 8.3251,-1.6881 11.33,-4.693 3.0049,-3.0049 4.6931,-7.0804 4.6931,-11.33 0,-4.2496 -1.6882,-8.3251 -4.6931,-11.33 -3.0049,-3.0049 -7.0804,-4.693 -11.33,-4.693 z m 0.052,4.3427 v 0 l 7.1672,11.898 -5.8796,3.4749 -0.022,0.013 -1.2675,0.7491 -7.1688,-4.2386 z m -7.2736,13.2572 7.168,4.2337 7.174,-4.2337 -7.1749,10.1034 z"
       id="circle12618"
       inkscape:connector-curvature="0" />
    <path
       style="opacity:1;fill:#000000;fill-opacity:1;stroke:none;stroke-width:0.00433851;stroke-miterlimit:4;stroke-dasharray:none;stroke-opacity:1"
       d="m 77.908636,210.02558 a 19.999999,20.000007 0 0 1 20,20 19.999999,20.000007 0 0 1 -20,20 19.999999,20.000007 0 0 1 -20.000004,-20 19.999999,20.000007 0 0 1 20.000004,-20 z m 0,3.3355 c -4.41973,0 -8.6584,1.7557 -11.783604,4.8809 -3.1252,3.1252 -4.88093,7.3639 -4.88093,11.7836 0,4.4197 1.75573,8.6584 4.88093,11.7836 3.125204,3.1252 7.363874,4.8809 11.783604,4.8809 4.41973,0 8.6584,-1.7557 11.7836,-4.8809 3.1252,-3.1252 4.8808,-7.3639 4.8808,-11.7836 0,-4.4197 -1.7556,-8.6584 -4.8808,-11.7836 -3.1252,-3.1252 -7.36387,-4.8809 -11.7836,-4.8809 z m 0,0.6415 c 4.2496,0 8.32507,1.6881 11.33,4.693 3.00493,3.0049 4.69307,7.0804 4.69307,11.33 0,4.2496 -1.68814,8.3251 -4.69307,11.33 -3.00493,3.0049 -7.0804,4.693 -11.33,4.693 -4.2496,0 -8.32507,-1.6881 -11.330004,-4.693 -3.00493,-3.0049 -4.69307,-7.0804 -4.69307,-11.33 0,-4.2496 1.68814,-8.3251 4.69307,-11.33 3.004934,-3.0049 7.080404,-4.693 11.330004,-4.693 z m 0.82147,2.992 -2.19347,0.5469 0.88133,3.5331 c -0.5888,0.1344 -1.18133,0.27 -1.75826,0.4137 l -0.87507,-3.5099 -2.19467,0.5469 0.89894,3.6049 c -2.77094,0.9544 -4.79747,2.385 -4.39934,5.0462 0.28827,1.9481 1.3684,2.8913 2.80227,3.2219 -1.96893,1.025 -2.97093,2.5968 -2.01653,5.3218 1.18453,3.3843 3.99853,3.67 7.7408,2.9618 l 0.90826,3.6394 2.19467,-0.5469 -0.8964,-3.5906 c 0.5688,-0.1412 1.15013,-0.2912 1.74893,-0.4537 l 0.89947,3.6074 2.19213,-0.5468 -0.90826,-3.6462 c 0.51253,-0.1313 1.03333,-0.2707 1.56453,-0.4038 l 2.856,-0.7119 -1.08947,-2.5118 c 0,0 -1.61706,0.43 -1.5952,0.3981 -0.62133,0.1538 -0.89693,-0.2512 -1.00573,-0.5212 l -1.4352,-5.7531 c -0.0805,0.019 -0.15867,0.039 -0.23187,0.057 0.0875,-0.035 0.16694,-0.057 0.22814,-0.073 l -1.02387,-4.1069 c -0.0268,-0.4662 0.13373,-1.0543 1.02267,-1.2762 -0.0344,-0.023 1.59386,-0.3962 1.59386,-0.3962 l -0.58373,-2.3438 -3.02667,0.7556 0.003,0.011 c -0.45507,0.1132 -0.92387,0.2207 -1.40133,0.3294 z m -0.7208,6.6719 0.2756,1.1051 0.0137,0.055 0.80333,3.2209 c -0.34186,0.085 -0.88026,0.2427 -1.4936,0.3742 -0.008,0 -0.0169,0 -0.0255,0.01 -1.60627,0.3412 -3.71214,0.4951 -4.15787,-1.2902 -0.6444,-2.5856 3.34547,-3.1619 4.58427,-3.4706 z m 1.644,6.5924 1.20506,4.8306 c -1.4876,0.3693 -6.07626,1.8425 -6.7544,-0.8825 -0.44746,-1.7937 1.288,-2.748 3.00307,-3.3014 0.009,0 0.0172,-0.01 0.0259,-0.01 0.99346,-0.3182 1.9764,-0.5026 2.5204,-0.6383 z"
       id="circle12665"
       inkscape:connector-curvature="0" />
    <path
       inkscape:connector-curvature="0"
       style="opacity:1;fill:#000000;fill-opacity:1;stroke:none;stroke-width:0.0043385;stroke-miterlimit:4;stroke-dasharray:none;stroke-opacity:1"
       d="m 177.45864,209.40123 a 19.999999,19.999999 0 0 1 19.99982,19.99981 19.999999,19.999999 0 0 1 -19.99982,19.99981 19.999999,19.999999 0 0 1 -19.99981,-19.99981 19.999999,19.999999 0 0 1 19.99981,-19.99981 z m 0,3.3352 c -4.4198,0 -8.65806,1.75566 -11.78326,4.88084 -3.1252,3.1252 -4.88135,7.36407 -4.88135,11.78377 0,4.41969 1.75615,8.65861 4.88135,11.78379 3.1252,3.1252 7.36346,4.88082 11.78326,4.88082 4.4196,0 8.65806,-1.75562 11.78326,-4.88082 3.1252,-3.12518 4.88136,-7.36411 4.88136,-11.78379 0,-4.4197 -1.75616,-8.65808 -4.88136,-11.78326 -3.1252,-3.1252 -7.36366,-4.88135 -11.78326,-4.88135 z m 0,0.64182 c 4.2494,0 8.32506,1.68783 11.33006,4.69274 3.0048,3.00489 4.69274,7.08047 4.69274,11.33005 0,4.24956 -1.68774,8.32518 -4.69274,11.33005 -3.0048,3.00493 -7.08066,4.69326 -11.33006,4.69326 -4.2496,0 -8.32516,-1.68833 -11.33005,-4.69326 -3.005,-3.00487 -4.69274,-7.08048 -4.69274,-11.33005 0,-4.24958 1.68774,-8.32515 4.69274,-11.33005 3.00489,-3.00491 7.08045,-4.69274 11.33005,-4.69274 z m 3.08767,5.29683 h -6.18619 l 2.18127,8.21346 -3.02773,-1.10588 -0.0259,0.0713 0.76482,2.87476 3.07578,1.12345 1.29914,4.89169 h -10.27792 l 1.05523,3.93154 h 16.46411 l -1.68103,-6.31692 2.3797,0.86919 -0.78704,-2.96364 -2.38176,-0.87023 z"
       id="circle4749" />
    <g
       id="g4641"
       transform="translate(1.34839,2.186662)">
      <path
         sodipodi:nodetypes="ssssssssssscssscsscc"
         style="fill:#000000;stroke-width:0.03678688"
         d="m 126.40479,117.38706 c -5.3044,0 -10.3915,2.10713 -14.1421,5.85785 -3.7508,3.75074 -5.8579,8.83783 -5.8579,14.14215 0,5.30433 2.1072,10.39141 5.8579,14.14215 3.7506,3.75072 8.8377,5.85785 14.1421,5.85785 5.3043,0 10.3913,-2.10713 14.1421,-5.85785 3.7507,-3.75072 5.8579,-8.83782 5.8579,-14.14215 0,-5.30432 -2.1072,-10.39141 -5.8579,-14.14215 -3.7508,-3.75072 -8.8378,-5.85786 -14.1421,-5.85785 z m 0,3.33331 c 4.4203,0 8.6595,1.75594 11.7851,4.88156 3.1256,3.12562 4.8816,7.36486 4.8816,11.78513 0,4.42028 -1.756,8.65951 -4.8816,11.78513 -3.1256,3.12562 -7.3648,4.88156 -11.7851,4.88156 -4.4203,0 -8.6595,-1.75596 -11.7851,-4.88156 -3.1256,-3.12562 -4.8816,-7.36485 -4.8816,-11.78513 0,-4.42027 1.756,-8.65951 4.8816,-11.78513 3.1256,-3.1256 7.3648,-4.88156 11.7851,-4.88156 z m 1.7892,22.02986 c -4.6139,-24.02574 -2.3069,-12.01286 0,0 z"
         id="path8915"
         inkscape:connector-curvature="0" />
      <path
         id="path2-6-0"
         d="m 126.35239,143.19813 -7.1689,-4.23422 7.1672,10.1035 7.1749,-10.1035 -7.1749,4.23422 z m 0.1048,-17.49143 -7.1688,11.8964 7.1688,4.23861 7.1688,-4.23696 -7.1671,-11.89805 z"
         style="fill:#ff0000;stroke-width:1.46005476"
         inkscape:connector-curvature="0" />
    </g>
    <g
       id="g4645"
       transform="translate(2.88419,1.003852)">
      <path
         inkscape:connector-curvature="0"
         id="path11807"
         d="m 75.02444,118.56987 c -5.3043,0 -10.391504,2.10715 -14.142104,5.85787 -3.7508,3.75073 -5.8579,8.83781 -5.8579,14.14214 0,5.30434 2.1072,10.3914 5.8579,14.14214 3.7506,3.75072 8.837804,5.85785 14.142104,5.85785 5.304312,0 10.391312,-2.10713 14.142112,-5.85785 3.7507,-3.75072 5.8579,-8.8378 5.8579,-14.14214 0,-5.30434 -2.1072,-10.39141 -5.8579,-14.14214 -3.7508,-3.75072 -8.8377,-5.85787 -14.142112,-5.85787 z m 0,3.33332 c 4.420312,0 8.659512,1.75595 11.785112,4.88156 3.1256,3.12561 4.8816,7.36484 4.8816,11.78513 0,4.42028 -1.756,8.65951 -4.8816,11.78512 -3.1256,3.1256 -7.3648,4.88155 -11.785112,4.88155 -4.4203,0 -8.6595,-1.75595 -11.785104,-4.88155 -3.1256,-3.12561 -4.8816,-7.36484 -4.8816,-11.78512 0,-4.42029 1.756,-8.65952 4.8816,-11.78513 3.125604,-3.12561 7.364804,-4.88156 11.785104,-4.88156 z m 1.789202,22.02987 c -4.613902,-24.02575 -2.306902,-12.01288 0,0 z"
         style="fill:#000000;stroke-width:0.03678687"
         sodipodi:nodetypes="ssssssssssscssscsscc" />
      <path
         style="fill:#ff0000;stroke-width:0.62503034"
         inkscape:connector-curvature="0"
         d="m 83.843352,135.7207 c 0.3983,-2.66123 -1.6282,-4.09184 -4.3992,-5.0462 l 0.899,-3.60498 -2.1947,-0.54686 -0.8751,3.50997 c -0.57691,-0.14376 -1.16941,-0.27937 -1.75841,-0.41375 l 0.8814,-3.53309 -2.193402,-0.54687 -0.8994,3.60371 c -0.4775,-0.10875 -0.9463,-0.21624 -1.4014,-0.32937 v -0.0112 l -3.0267,-0.75563 -0.5837,2.34373 c 0,0 1.6283,0.37312 1.5939,0.39624 0.8888,0.22188 1.0494,0.81 1.0226,1.27624 l -1.0238,4.10683 c 0.061,0.0156 0.1405,0.0381 0.2281,0.0731 -0.073,-0.0181 -0.1513,-0.0381 -0.2319,-0.0575 l -1.4352,5.75308 c -0.1088,0.27 -0.3844,0.675 -1.0057,0.52125 0.022,0.0319 -1.595204,-0.39812 -1.595204,-0.39812 l -1.0895,2.51184 2.855904,0.71187 c 0.5313,0.13313 1.052,0.2725 1.5645,0.40374 l -0.9081,3.64622 2.1921,0.54688 0.8995,-3.60747 c 0.5988,0.16249 1.1801,0.31249 1.7489,0.45375 l -0.8964,3.59058 2.1947,0.54687 0.908102,-3.63933 c 3.74231,0.70812 6.55641,0.42249 7.74081,-2.96186 0.9546,-2.72497 -0.047,-4.29682 -2.0164,-5.32181 1.4339,-0.33063 2.514,-1.27376 2.8022,-3.22185 z m -5.0142,7.03056 c -0.6782,2.72497 -5.266812,1.25186 -6.754412,0.88249 l 1.205,-4.83057 c 1.4878,0.37124 6.258212,1.10624 5.549412,3.94808 z m 0.6788,-7.06995 c -0.6188,2.47875 -4.437912,1.21937 -5.676812,0.91063 l 1.0926,-4.38122 c 1.238802,0.30875 5.228712,0.885 4.584212,3.47059 z"
         id="path4-5-7" />
    </g>
    <g
       id="g4739"
       transform="translate(-0.13922125,-23.334455)">
      <path
         sodipodi:nodetypes="ssssssssssscssscsscc"
         style="fill:#000000;stroke-width:0.03678688"
         d="m 177.59787,142.90818 c -5.3043,0 -10.3915,2.10713 -14.1421,5.85785 -3.7507,3.75074 -5.8579,8.83783 -5.8579,14.14215 0,5.30433 2.1072,10.39141 5.8579,14.14215 3.7508,3.75072 8.8378,5.85785 14.1421,5.85785 5.3043,0 10.3915,-2.10713 14.1421,-5.85785 3.7507,-3.75074 5.8579,-8.83782 5.8579,-14.14215 0,-5.30432 -2.1071,-10.39141 -5.8579,-14.14215 -3.7506,-3.75072 -8.8377,-5.85785 -14.1421,-5.85785 z m 0,3.33331 c 4.4203,0 8.6595,1.75594 11.7851,4.88156 3.1256,3.12562 4.8816,7.36486 4.8816,11.78513 0,4.42028 -1.756,8.65952 -4.8816,11.78513 -3.1256,3.12562 -7.3648,4.88156 -11.7851,4.88156 -4.4203,0 -8.6595,-1.75594 -11.7851,-4.88156 -3.1256,-3.12562 -4.8816,-7.36485 -4.8816,-11.78513 0,-4.42027 1.756,-8.65951 4.8816,-11.78513 3.1256,-3.1256 7.3648,-4.88156 11.7851,-4.88156 z m 1.7892,22.02986 c -4.6139,-24.02573 -2.3069,-12.01286 0,0 z"
         id="path11857"
         inkscape:connector-curvature="0" />
      <path
         id="path8-2"
         d="m 176.42907,168.25089 1.2991,-4.89152 3.0756,-1.12363 0.7649,-2.87472 -0.026,-0.0713 -3.0275,1.106 2.1813,-8.21342 h -6.1862 l -2.8527,10.71872 -2.3817,0.87008 -0.787,2.96365 2.3799,-0.86936 -1.6812,6.31704 h 16.464 l 1.0555,-3.93153 h -10.2779"
         style="fill:#ff0000;stroke-width:0.12148643"
         inkscape:connector-curvature="0" />
    </g>
    <g
       id="g909"
       transform="translate(-0.29259943,-1.0889193)">
      <g
         transform="translate(3.5079126,2.7030213)"
         id="g4648">
        <path
           sodipodi:nodetypes="ssssssssss"
           style="fill:#000000;stroke-width:0.03678687"
           d="m 24.555934,117.95962 c -11.045696,0 -20.0000018,8.95431 -20.0000001,20.00001 9.4e-6,11.04569 8.9543121,19.99999 20.0000001,19.99999 11.045688,0 19.999991,-8.9543 20,-19.99999 2e-6,-11.0457 -8.954304,-20.00001 -20,-20.00001 z m 0,3.33332 c 9.204754,0 16.66668,7.46193 16.66667,16.66669 -10e-7,9.20475 -7.461924,16.66667 -16.66667,16.66667 -9.204743,0 -16.666659,-7.46192 -16.6666601,-16.66667 -9.9e-6,-9.20475 7.4619101,-16.66669 16.6666601,-16.66669 z"
           id="path5830-0"
           inkscape:connector-curvature="0" />
      </g>
      <g
         id="g4759"
         transform="translate(3.5079126,2.7030213)">
        <path
           sodipodi:nodetypes="ccccccccccccccccccccccccccccccccccccccccccccccccccccccccccccccccccccccccc"
           inkscape:connector-curvature="0"
           id="path4757"
           d="m 29.439274,124.8905 c -0.95387,0.002 -1.27734,1.83068 -1.88427,2.52681 -0.8836,1.46971 2.10653,0.43924 2.48547,1.57556 0.22853,0.2121 0.588,0.0394 0.61213,-0.25414 -1.0328,-1.02668 -0.36853,-2.61691 -0.99987,-3.8199 -0.0745,-0.0194 -0.1456,-0.0285 -0.21346,-0.0283 z m -13.49827,0.30381 c -0.16813,0.001 -0.34333,0.0571 -0.52787,0.18572 -0.65853,1.30011 -0.91893,2.80576 -0.7856,4.256 0.26014,1.32966 0.72307,2.68086 0.22267,4.03283 0.0188,1.20364 -1.47107,3.19877 0.0879,3.84396 1.23507,0.18229 1.59613,-1.9916 2.11133,-2.85657 0.46934,-1.23046 1.75094,-1.73751 2.64387,-2.60208 0.66867,-1.019 1.4172,-1.24902 3.1512,-1.46748 1.73387,-0.21846 0.89227,-0.98496 3.28147,0.2442 0.81693,1.16033 1.85733,-1.23127 0.84453,-1.62388 -0.47093,-0.29756 0.23733,-0.55646 -2.08547,-1.36931 -0.50546,-0.46692 -1.7944,0.32128 -2.5064,0.67412 -1.51333,1.07668 -2.6204,-0.66172 -3.82106,-1.34224 -0.95734,-0.29449 -1.6804,-1.982 -2.61654,-1.97527 z m 16.98053,4.44468 c -0.1884,-0.001 -0.3436,0.15751 -0.39893,0.5892 0.76973,1.16095 1.85947,2.21303 2.22587,3.63524 l 0.11053,0.0493 c 1.03747,-0.65028 -0.24853,-2.62242 -0.97453,-3.33966 -0.1552,-0.38452 -0.61547,-0.9317 -0.96294,-0.93412 z m -1.01266,2.97435 c -1.15054,-0.005 -1.9612,2.56839 -0.15947,2.84425 1.61493,1.01106 0.8936,-1.55212 1.0248,-2.31528 -0.2868,-0.37469 -0.58613,-0.52777 -0.86533,-0.52897 z m -7.35187,1.38629 c -0.1548,0 -0.3284,0.0272 -0.5236,0.0851 -2.17173,0.004 -1.93093,2.81885 0.005,2.99001 0.706,0.18102 1.4644,0.12555 2.14573,-0.12705 1.34427,0.01 1.8948,-2.05569 0.28933,-1.9502 -0.10586,-0.0795 0.77934,1.48961 -0.47946,1.36795 -0.17254,-0.88167 -0.27134,-2.3693 -1.43774,-2.36582 z m 11.5056,2.24052 c -0.53387,-0.005 -0.24947,1.57943 0.13,2.12544 0.51493,1.30564 0.36107,2.77266 0.005,4.1004 -0.34294,1.4246 -0.8444,2.87863 -2.16627,3.69615 -0.6488,1.09036 -3.28,0.72728 -2.77027,2.33457 0.60014,0.12646 1.1272,-0.26124 1.58134,-0.59554 0.8836,-0.57804 1.99666,-0.77538 2.59973,-1.75326 1.09213,-1.4547 1.7536,-3.24356 1.9768,-5.04005 -0.0355,-1.52296 -0.43693,-3.03765 -0.77693,-4.51075 -0.2544,-0.25125 -0.4436,-0.35573 -0.57974,-0.35696 z m -3.3272,1.28034 c -1.15013,0.003 -2.39467,0.48544 -2.3584,1.78546 0.44813,1.11059 0.9572,2.64486 -0.31613,3.50607 -1.14987,0.69799 -3.268,-1.23783 -3.71574,0.51077 1.47547,0.59462 2.96347,1.20732 4.54147,1.46879 l 0.23827,0.0236 0.23693,0.005 c 1.228,-0.058 2.89267,-0.87936 3.15947,-2.06004 -1.04907,-0.23309 -0.47294,-0.88448 -0.082,-1.55759 0.64386,-1.11124 0.86946,-3.21176 -0.752,-3.5702 -0.28627,-0.0727 -0.61507,-0.11285 -0.95187,-0.11189 z m -17.41427,1.64361 c -0.39346,-0.002 -0.76386,0.44989 -0.7692,1.00379 -1.07626,0.66734 -1.13853,1.76224 -1.40613,2.8548 -0.85587,1.23542 -0.1788,2.85802 0.688,3.8889 1.50053,1.51746 3.81067,1.04944 5.66733,1.69356 1.44894,0.34386 1.3392,-1.05645 0.22827,-1.50518 -1.40413,-0.4841 -1.32493,-1.97124 -2.20107,-2.92351 -0.95946,-1.3564 -0.5596,-3.15191 -1.5664,-4.48256 -0.17666,-0.37503 -0.41266,-0.52875 -0.6408,-0.5298 z"
           style="fill:#ff0000;fill-opacity:1;stroke-width:0.03678687" />
      </g>
    </g>
    <path
       inkscape:connector-curvature="0"
       style="fill:#000000;stroke-width:0.03678687"
       d="m 27.771506,74.503821 c -11.045696,0 -20.0003308,8.95463 -20.0003292,20.00032 9.5e-6,11.045689 8.9546412,19.999819 20.0003292,19.999819 11.045687,0 19.999804,-8.95413 19.999811,-19.999819 3e-6,-11.04569 -8.954116,-20.00032 -19.999811,-20.00032 z m 0,3.33313 c 9.204753,0 16.666691,7.46244 16.666683,16.66719 -2e-6,9.204759 -7.461938,16.666169 -16.666683,16.666169 -9.204743,0 -16.666682,-7.46141 -16.666683,-16.666169 -10e-6,-9.20474 7.461933,-16.66719 16.666683,-16.66719 z m 4.883422,3.59771 c -0.95387,0.002 -1.27771,1.83085 -1.88464,2.52698 -0.8836,1.46971 2.106697,0.43929 2.485639,1.57561 0.228528,0.2121 0.588235,0.0393 0.612365,-0.25425 -1.032801,-1.02668 -0.368599,-2.61693 -0.99994,-3.81992 -0.0745,-0.0194 -0.145563,-0.0286 -0.213424,-0.0284 z m -13.4984,0.30386 c -0.16813,10e-4 -0.343593,0.0569 -0.528133,0.18552 -0.65853,1.30011 -0.918812,2.80583 -0.785482,4.25607 0.26014,1.32966 0.723125,2.68086 0.222725,4.03282 0.0188,1.20364 -1.47112,3.19903 0.08785,3.84421 1.23507,0.18229 1.596299,-1.9917 2.111499,-2.85667 0.46934,-1.23046 1.750837,-1.73734 2.643766,-2.60191 0.668671,-1.019 1.417229,-1.24915 3.151229,-1.46761 1.733871,-0.21846 0.892255,-0.98473 3.281453,0.24443 0.81693,1.16033 1.857192,-1.23158 0.844394,-1.62419 -0.470929,-0.29756 0.237656,-0.55657 -2.085144,-1.36942 -0.50546,-0.46692 -1.794307,0.32153 -2.506307,0.67437 -1.51333,1.07668 -2.620812,-0.66203 -3.821473,-1.34255 -0.95734,-0.29449 -1.680237,-1.9818 -2.616377,-1.97507 z m 16.980359,4.44469 c -0.188402,-0.001 -0.343611,0.15742 -0.398944,0.58911 0.769731,1.16095 1.859823,2.21323 2.226223,3.63543 l 0.110588,0.0491 c 1.037468,-0.65028 -0.248619,-2.62209 -0.974619,-3.33933 -0.1552,-0.38452 -0.615778,-0.93189 -0.963248,-0.93431 z m -1.01234,2.97449 c -1.150541,-0.005 -1.961412,2.56841 -0.159682,2.84427 1.61493,1.01106 0.893543,-1.55246 1.024745,-2.31562 -0.286801,-0.37469 -0.585865,-0.52745 -0.865063,-0.52865 z m -7.353041,1.38596 c -0.154556,1.2e-4 -0.327655,0.0275 -0.522449,0.0853 -2.17173,0.004 -1.931279,2.81884 0.0047,2.99 0.705998,0.18102 1.464791,0.12547 2.146122,-0.12713 1.344269,0.01 1.894856,-2.05575 0.289388,-1.95026 -0.105859,-0.0795 0.779243,1.49005 -0.479557,1.36839 -0.172487,-0.8814 -0.271748,-2.36882 -1.437121,-2.36627 h -5.29e-4 z m 11.506274,2.24069 c -0.533125,-0.004 -0.249116,1.57963 0.130225,2.12546 0.51493,1.30564 0.361238,2.772776 0.0052,4.100516 -0.342939,1.424603 -0.844407,2.878383 -2.166276,3.695903 -0.6488,1.09036 -3.280103,0.72745 -2.770372,2.33474 0.600138,0.12646 1.127157,-0.26101 1.581298,-0.59531 0.8836,-0.57804 1.996771,-0.7755 2.599841,-1.75338 1.092131,-1.4547 1.753423,-3.243523 1.976622,-5.040013 -0.0355,-1.522956 -0.436694,-3.037726 -0.776695,-4.510826 -0.254119,-0.25097 -0.443187,-0.35563 -0.579294,-0.35709 z m -3.326929,1.28055 c -1.150131,0.003 -2.394781,0.4854 -2.358512,1.78542 0.44813,1.110586 0.957588,2.644516 -0.315743,3.505716 -1.149871,0.698003 -3.268313,-1.23751 -3.716052,0.51108 1.47547,0.594633 2.963326,1.207183 4.541324,1.468653 l 0.238745,0.0238 0.23668,0.005 c 1.228,-0.058 2.892695,-0.87915 3.159495,-2.059833 -1.04907,-0.23309 -0.473104,-0.88441 -0.08216,-1.55752 0.643858,-1.11124 0.869566,-3.211886 -0.751893,-3.570326 -0.286272,-0.0727 -0.61508,-0.11258 -0.951881,-0.11162 z m -17.41444,1.64331 c -0.39346,-0.002 -0.763606,0.45017 -0.768946,1.004066 -1.07626,0.66734 -1.138515,1.76205 -1.406115,2.85461 -0.85587,1.235413 -0.178987,2.858283 0.687813,3.889163 1.50053,1.51746 3.810694,1.04932 5.667354,1.69344 1.44894,0.34386 1.33934,-1.0566 0.22841,-1.50534 -1.40413,-0.48409 -1.324759,-1.97106 -2.200899,-2.92333 -0.95946,-1.356403 -0.56003,-3.151763 -1.566829,-4.482409 -0.176661,-0.37503 -0.412648,-0.52915 -0.640788,-0.5302 z"
       id="path4770" />
    <path
       inkscape:connector-curvature="0"
       style="fill:#000000;stroke-width:0.03678688"
       d="m 127.75344,74.503821 c -5.3044,0 -10.39169,2.10732 -14.14229,5.85804 -3.7508,3.75074 -5.85804,8.83745 -5.85804,14.14177 0,5.304326 2.10734,10.391549 5.85804,14.142289 3.7506,3.75072 8.83789,5.85804 14.14229,5.85804 5.3043,0 10.39097,-2.10732 14.14177,-5.85804 3.7507,-3.75072 5.85804,-8.837963 5.85804,-14.142289 0,-5.30432 -2.10734,-10.39103 -5.85804,-14.14177 -3.7508,-3.75072 -8.83747,-5.85805 -14.14177,-5.85804 z m 0,3.33313 c 4.4203,0 8.65921,1.75625 11.78481,4.88187 3.1256,3.12562 4.88187,7.36454 4.88187,11.78481 0,4.420276 -1.75627,8.659709 -4.88187,11.785329 -3.1256,3.12562 -7.36451,4.88135 -11.78481,4.88135 -4.4203,0 -8.65973,-1.75575 -11.78533,-4.88135 -3.1256,-3.12562 -4.88187,-7.365053 -4.88187,-11.785329 0,-4.42027 1.75627,-8.65919 4.88187,-11.78481 3.1256,-3.1256 7.36503,-4.88187 11.78533,-4.88187 z m 0.0522,4.98677 -7.16907,11.89643 7.16907,4.238496 1.40302,-0.8294 5.76554,-3.407546 -7.16701,-11.89798 z m -7.27397,13.25707 7.16752,10.103259 7.17476,-10.103259 -5.44205,3.211686 -1.73168,1.022163 z"
       id="path4774" />
    <path
       inkscape:connector-curvature="0"
       style="fill:#000000;stroke-width:0.03678687"
       d="m 77.908375,74.503821 c -5.304301,0 -10.391172,2.10732 -14.141773,5.85804 -3.7508,3.75073 -5.858039,8.83796 -5.858039,14.14228 0,5.304336 2.10734,10.391039 5.858039,14.141779 3.750601,3.75072 8.837472,5.85804 14.141773,5.85804 5.304311,0 10.391489,-2.10732 14.142288,-5.85804 3.750702,-3.75072 5.858042,-8.837443 5.858042,-14.141779 0,-5.30434 -2.10734,-10.39155 -5.858042,-14.14228 -3.750799,-3.75072 -8.837877,-5.85804 -14.142288,-5.85804 z m 0,3.33313 c 4.420311,0 8.659727,1.75626 11.785327,4.88187 3.125599,3.12561 4.881356,7.36504 4.881356,11.78532 0,4.420276 -1.755757,8.659209 -4.881356,11.784819 -3.1256,3.1256 -7.365016,4.88135 -11.785327,4.88135 -4.420299,0 -8.659207,-1.75575 -11.784809,-4.88135 -3.125602,-3.12561 -4.881875,-7.364543 -4.881875,-11.784819 0,-4.42028 1.756273,-8.65971 4.881875,-11.78532 3.125602,-3.12561 7.36451,-4.88187 11.784809,-4.88187 z m -0.821656,3.63595 -0.899171,3.60391 c -0.477498,-0.10875 -0.946364,-0.21656 -1.401463,-0.32969 v -0.0109 l -3.026688,-0.75603 -0.583427,2.34405 c 0,0 1.6281,0.37324 1.593701,0.39636 0.888799,0.22188 1.049476,0.80965 1.022676,1.27589 l -1.02371,4.10672 c 0.061,0.0156 0.140293,0.0384 0.227894,0.0734 -0.073,-0.0181 -0.151429,-0.038 -0.232029,-0.0574 l -1.435053,5.753136 c -0.108802,0.27 -0.384323,0.67465 -1.005623,0.5209 0.02199,0.0319 -1.595252,-0.39791 -1.595252,-0.39791 l -1.08934,2.511473 2.85564,0.71211 c 0.531299,0.13313 1.052261,0.27235 1.564762,0.40359 l -0.908471,3.64629 2.192113,0.54674 0.899689,-3.60702 c 0.598799,0.16249 1.17993,0.31246 1.748729,0.45372 l -0.89607,3.59048 2.194698,0.54674 0.907954,-3.63906 c 3.742312,0.70812 6.556214,0.42226 7.740613,-2.96209 0.954601,-2.724973 -0.04701,-4.296649 -2.016413,-5.321639 1.433899,-0.33063 2.514214,-1.27394 2.802414,-3.22203 h 0.0026 c 0.398301,-2.66123 -1.628215,-4.09184 -4.399214,-5.0462 l 0.89917,-3.60495 -2.1947,-0.54674 -0.875398,3.50987 c -0.57691,-0.14376 -1.169548,-0.27955 -1.758547,-0.41393 l 0.881599,-3.53312 z m 0.720886,6.67194 c 1.238803,0.30875 5.228717,0.885 4.584216,3.47059 -0.433779,1.73762 -2.438283,1.63729 -4.026109,1.3162 -0.677249,-0.13695 -1.28012,-0.31335 -1.650545,-0.40566 l 0.888318,-3.56309 z m -1.643827,6.59237 c 0.57354,0.14311 1.634771,0.3419 2.682007,0.69298 1.669362,0.55965 3.303085,1.508766 2.867525,3.255096 -0.678198,2.724973 -5.267026,1.252 -6.754627,0.88263 z"
       id="path4780" />
    <path
       inkscape:connector-curvature="0"
       style="fill:#000000;stroke-width:0.03678688"
       d="m 177.45891,74.503821 c -5.3043,0 -10.39169,2.10732 -14.14229,5.85804 -3.7507,3.75074 -5.85804,8.83797 -5.85804,14.14228 0,5.304326 2.10734,10.391039 5.85804,14.141779 3.7508,3.75072 8.83799,5.85804 14.14229,5.85804 5.3043,0 10.39118,-2.10732 14.14178,-5.85804 3.75069,-3.75074 5.85803,-8.837453 5.85803,-14.141779 0,-5.30431 -2.10723,-10.39154 -5.85803,-14.14228 -3.7506,-3.75072 -8.83738,-5.85804 -14.14178,-5.85804 z m 0,3.33313 c 4.4203,0 8.65921,1.75625 11.78481,4.88187 3.1256,3.12562 4.88188,7.36506 4.88188,11.78532 0,4.420276 -1.75628,8.659209 -4.88188,11.784819 -3.1256,3.12562 -7.36451,4.88187 -11.78481,4.88187 -4.4203,0 -8.65972,-1.75625 -11.78532,-4.88187 -3.1256,-3.12562 -4.88136,-7.364543 -4.88136,-11.784819 0,-4.42026 1.75576,-8.6597 4.88136,-11.78532 3.1256,-3.1256 7.36502,-4.88187 11.78532,-4.88187 z m -3.08766,5.94124 -2.85254,10.71872 -2.38177,0.86972 -0.78703,2.963636 2.3797,-0.8692 -1.68104,6.316933 h 16.46411 l 1.05524,-3.931543 h -7.3241 -2.95383 l 1.29915,-4.891176 0.66869,-0.24443 2.40709,-0.87953 0.76481,-2.87476 -0.0258,-0.0713 -3.02772,1.10639 2.18126,-8.21345 z"
       id="path4786" />
    <circle
       cy="274.78323"
       cx="27.771248"
       id="circle12593-6"
       style="opacity:1;fill:#000000;fill-opacity:1;stroke:none;stroke-width:0.0043385;stroke-miterlimit:4;stroke-dasharray:none;stroke-opacity:1"
       r="20" />
    <path
       id="path4915"
       d="m 171.31436,56.307611 c -2.00366,8.0357 -10.14343,12.92612 -18.181,10.92223 -8.03429,-2.00342 -12.92528,-10.14271 -10.92069,-18.17794 2.00271,-8.036629 10.14248,-12.927519 18.17771,-10.924099 8.0371,2.00342 12.92763,10.143649 10.92398,18.179809 z"
       inkscape:connector-curvature="0"
       style="fill:#000000;fill-opacity:1;stroke-width:0.46877268" />
    <text
       xml:space="preserve"
       style="font-style:normal;font-variant:normal;font-weight:normal;font-stretch:normal;font-size:4.23333311px;line-height:1.25;font-family:'Press Start 2P';-inkscape-font-specification:'Press Start 2P';letter-spacing:0px;word-spacing:0px;fill:#000000;fill-opacity:1;stroke:none;stroke-width:0.26458332"
       x="-38.400185"
       y="55.831009"
       id="text4919"><tspan
         sodipodi:role="line"
         id="tspan4917"
         x="-38.400185"
         y="55.831009"
         style="font-style:normal;font-variant:normal;font-weight:normal;font-stretch:normal;font-size:7.05555534px;font-family:sans-serif;-inkscape-font-specification:sans-serif;stroke-width:0.26458332">30x30x8</tspan></text>
    <text
       id="text4923"
       y="273.32159"
       x="-45.018211"
       style="font-style:normal;font-variant:normal;font-weight:normal;font-stretch:normal;font-size:4.23333311px;line-height:1.25;font-family:'Press Start 2P';-inkscape-font-specification:'Press Start 2P';letter-spacing:0px;word-spacing:0px;fill:#000000;fill-opacity:1;stroke:none;stroke-width:0.26458332"
       xml:space="preserve"><tspan
         style="font-style:normal;font-variant:normal;font-weight:normal;font-stretch:normal;font-size:7.05555534px;font-family:sans-serif;-inkscape-font-specification:sans-serif;stroke-width:0.26458332"
         y="273.32159"
         x="-45.018211"
         id="tspan4921"
         sodipodi:role="line">40x40x1.6</tspan></text>
    <text
       xml:space="preserve"
       style="font-style:normal;font-variant:normal;font-weight:normal;font-stretch:normal;font-size:4.23333311px;line-height:1.25;font-family:'Press Start 2P';-inkscape-font-specification:'Press Start 2P';letter-spacing:0px;word-spacing:0px;fill:#000000;fill-opacity:1;stroke:none;stroke-width:0.26458332"
       x="-45.018211"
       y="97.048988"
       id="text4927"><tspan
         sodipodi:role="line"
         id="tspan4925"
         x="-45.018211"
         y="97.048988"
         style="font-style:normal;font-variant:normal;font-weight:normal;font-stretch:normal;font-size:7.05555534px;font-family:sans-serif;-inkscape-font-specification:sans-serif;stroke-width:0.26458332">40x40x0.7</tspan></text>
    <text
       id="text4931"
       y="55.831009"
       x="176.56493"
       style="font-style:normal;font-variant:normal;font-weight:normal;font-stretch:normal;font-size:4.23333311px;line-height:1.25;font-family:'Press Start 2P';-inkscape-font-specification:'Press Start 2P';letter-spacing:0px;word-spacing:0px;fill:#000000;fill-opacity:1;stroke:none;stroke-width:0.26458332"
       xml:space="preserve"><tspan
         style="font-style:normal;font-variant:normal;font-weight:normal;font-stretch:normal;font-size:7.05555534px;font-family:sans-serif;-inkscape-font-specification:sans-serif;stroke-width:0.26458332"
         y="55.831009"
         x="176.56493"
         id="tspan4929"
         sodipodi:role="line">30x30x5</tspan></text>
    <text
       id="text4935"
       y="237.65782"
       x="-45.018211"
       style="font-style:normal;font-variant:normal;font-weight:normal;font-stretch:normal;font-size:4.23333311px;line-height:1.25;font-family:'Press Start 2P';-inkscape-font-specification:'Press Start 2P';letter-spacing:0px;word-spacing:0px;fill:#000000;fill-opacity:1;stroke:none;stroke-width:0.26458332"
       xml:space="preserve"><tspan
         style="font-style:normal;font-variant:normal;font-weight:normal;font-stretch:normal;font-size:7.05555534px;font-family:sans-serif;-inkscape-font-specification:sans-serif;stroke-width:0.26458332"
         y="237.65782"
         x="-45.018211"
         id="tspan4933"
         sodipodi:role="line">40x40x0.7</tspan></text>
    <text
       id="text887"
       y="55.831009"
       x="-89.849571"
       style="font-style:normal;font-variant:normal;font-weight:normal;font-stretch:normal;font-size:4.23333311px;line-height:1.25;font-family:'Press Start 2P';-inkscape-font-specification:'Press Start 2P';letter-spacing:0px;word-spacing:0px;fill:#000000;fill-opacity:1;stroke:none;stroke-width:0.26458332"
       xml:space="preserve"><tspan
         style="font-style:normal;font-variant:normal;font-weight:normal;font-stretch:normal;font-size:7.05555534px;font-family:sans-serif;-inkscape-font-specification:sans-serif;stroke-width:0.26458332"
         y="55.831009"
         x="-89.849571"
         id="tspan885"
         sodipodi:role="line">8 layers</tspan></text>
    <text
       xml:space="preserve"
       style="font-style:normal;font-variant:normal;font-weight:normal;font-stretch:normal;font-size:4.23333311px;line-height:1.25;font-family:'Press Start 2P';-inkscape-font-specification:'Press Start 2P';letter-spacing:0px;word-spacing:0px;fill:#000000;fill-opacity:1;stroke:none;stroke-width:0.26458332"
       x="-89.849571"
       y="95.587349"
       id="text891"><tspan
         sodipodi:role="line"
         id="tspan889"
         x="-89.849571"
         y="95.587349"
         style="font-style:normal;font-variant:normal;font-weight:normal;font-stretch:normal;font-size:7.05555534px;font-family:sans-serif;-inkscape-font-specification:sans-serif;stroke-width:0.26458332">2 layers</tspan></text>
    <text
       id="text895"
       y="237.65781"
       x="-89.849571"
       style="font-style:normal;font-variant:normal;font-weight:normal;font-stretch:normal;font-size:4.23333311px;line-height:1.25;font-family:'Press Start 2P';-inkscape-font-specification:'Press Start 2P';letter-spacing:0px;word-spacing:0px;fill:#000000;fill-opacity:1;stroke:none;stroke-width:0.26458332"
       xml:space="preserve"><tspan
         style="font-style:normal;font-variant:normal;font-weight:normal;font-stretch:normal;font-size:7.05555534px;font-family:sans-serif;-inkscape-font-specification:sans-serif;stroke-width:0.26458332"
         y="237.65781"
         x="-89.849571"
         id="tspan893"
         sodipodi:role="line">2 layers</tspan></text>
    <text
       xml:space="preserve"
       style="font-style:normal;font-variant:normal;font-weight:normal;font-stretch:normal;font-size:4.23333311px;line-height:1.25;font-family:'Press Start 2P';-inkscape-font-specification:'Press Start 2P';letter-spacing:0px;word-spacing:0px;fill:#000000;fill-opacity:1;stroke:none;stroke-width:0.26458332"
       x="-89.849571"
       y="272.15228"
       id="text899"><tspan
         sodipodi:role="line"
         id="tspan897"
         x="-89.849571"
         y="272.15228"
         style="font-style:normal;font-variant:normal;font-weight:normal;font-stretch:normal;font-size:7.05555534px;font-family:sans-serif;-inkscape-font-specification:sans-serif;stroke-width:0.26458332">4 layers</tspan></text>
    <text
       xml:space="preserve"
       style="font-style:normal;font-variant:normal;font-weight:normal;font-stretch:normal;font-size:4.23333311px;line-height:1.25;font-family:'Press Start 2P';-inkscape-font-specification:'Press Start 2P';letter-spacing:0px;word-spacing:0px;fill:#000000;fill-opacity:1;stroke:none;stroke-width:0.26458332"
       x="225.27791"
       y="55.831009"
       id="text903"><tspan
         sodipodi:role="line"
         id="tspan901"
         x="225.27791"
         y="55.831009"
         style="font-style:normal;font-variant:normal;font-weight:normal;font-stretch:normal;font-size:7.05555534px;font-family:sans-serif;-inkscape-font-specification:sans-serif;stroke-width:0.26458332">13 layers</tspan></text>
  </g>
</svg>
